onion
parsley
parsnip
pea
pepper
potato
pumpkin
radish
rhubarb
romanesco
rutabaga
shallot
spinach
squash
tomatillo
tomato
turnip
wasabi
eggplant
endive
fennel
garlic
gourd
horseradish
kale
kelp
leek
lettuce
mushroom
okra
